<?xml version="1.0"?>
<robot xmlns:xacro="http://wiki.ros.org/xacro" name="ur5e_camera_robot">
  <!--
    This is a convenience top-level xacro which loads the macro for the UR5e
    which defines the default values for the various "parameters files"
    parameters for a UR5e.

    This file is only useful when loading a stand-alone, completely isolated
    robot with only default values for all parameters such as the kinematics,
    visual and physical parameters and joint limits.

    This file is not intended to be integrated into a larger scene or other
    composite xacro.

    Instead, xacro:include 'inc/ur5e_macro.xacro' and override the defaults
    for the arguments to that macro.

    Refer to 'inc/ur_macro.xacro' for more information.
  -->
  <xacro:include filename="$(find ur_description)/urdf/inc/ur5e_macro.xacro"/>
  <!-- <xacro:include filename="$(find robotiq_2f_85_gripper_visualization)/urdf/robotiq_arg2f_85_model.xacro" /> -->

   <link name="camera_link">
            <visual>
                  <geometry>
                       <mesh filename="package://realsense2_description/meshes/d435.dae" />  
                  </geometry>
                  <!-- <material name="flat_black"/> -->
            </visual>
            <collision>
                   <geometry>
                       <mesh filename="package://realsense2_description/meshes/d435.dae" />  
                  </geometry>
            </collision>
           <inertia ixx="6.69695624e-05" ixy="5.21511788e-09" ixz="-2.74383009e-08" iyy="7.85088161e-05" iyz="5.41105193e-07" izz="1.41819717e-04"/>
      </link>

      <xacro:property name="M_PI" value="3.1415926535897931" />

      <joint name="camera_to_gripper" type="fixed">
            <parent link="tool0"/>
            <child link="camera_link"/>
            <origin xyz="0.0 0.05 0.06" rpy="0 0 0"/> -->
      </joint>



  <xacro:ur5e_robot prefix="" />
</robot>
